<?xml version="1.0" encoding="UTF-8" standalone="no"?>
<?xml-stylesheet href="../style.css"?>

<svg version="1.1"
     baseProfile="full"
     width="100" height="100"
     xmlns="http://www.w3.org/2000/svg">

  <defs>
    <marker id="arrowhead" markerWidth="10" markerHeight="10" refX="10" refY="3" orient="auto" markerUnits="strokeWidth">
      <path d="M0,0 L0,6 L9,3 z" fill="#000" />
    </marker>
  </defs>

  <line x1="50" y1="50" x2="50" y2="20" stroke="black"
	marker-end="url(#arrowhead)" id="arrow"/>

  <g id="neutron">
    <circle cx="50" cy="50" r="30" class="neutron" />
    <use href="#arrow" />
  </g>

  <g id="background">
    <rect x="50" y="0" width="300" height="100" class="outfield" />
    <rect x="550" y="0" width="300" height="100" class="infield" />
  </g>

  <polygon id="sample" class="sample"
	   points="49,19 26,25 10,13 14,56 42,78 71,68 52,53 27,45 63,36 71,12" />

</svg>
