<?xml version="1.0" encoding="UTF-8" standalone="no"?>
<?xml-stylesheet href="../style.css"?>

<svg version="1.1"
     baseProfile="full"
     width="900" height="100"
     xmlns="http://www.w3.org/2000/svg">

  <use href="./common.svg#sample" x="400"/>

  <polygon points="50,0 150,100 350,100, 250,0" class="outfield" />

  <polygon points="550,0 650,100 850,100, 750,0" class="infield" />

  <polyline points="-100,50 100,50, 275,25 575,25 800,50, 900,50"
	    class="path" />

  <polyline points="-100,50 100,50, 325,75 625,75 800,50, 900,50"
	    class="path" />

  <text x="0" y="40">|↑>+|↓></text>

  <text x="365" y="15">|↑></text>
  <text x="365" y="95">|↓></text>

  <text x="515" y="15">ɑ|↑></text>
  <text x="515" y="95">β|↓></text>

  <text x="800" y="40">ɑ|↑>+β|↓></text>

  <polyline points="475,30 480,25 485,30 480,25 480,75 475,70 480,75 485,70 " class="path" />
  <text x="490" y="50">Z</text>

</svg>
